<?xml version="1.0" encoding="utf-8"?>
<!-- Generator: Adobe Illustrator 18.1.1, SVG Export Plug-In . SVG Version: 6.00 Build 0)  -->
<svg version="1.2" baseProfile="tiny" id="Layer_1" xmlns="http://www.w3.org/2000/svg" xmlns:xlink="http://www.w3.org/1999/xlink"
	 x="0px" y="0px" viewBox="0.7 34.8 100.8 32.5" xml:space="preserve">
<polygon fill="#1C1E1C" points="72.2,41.6 82.3,41.6 82.3,43.8 74.5,43.8 74.5,49 82.1,49 82.1,51.2 74.5,51.2 74.5,58.3 82.3,58.3 
	82.3,60.4 72.2,60.4 "/>
<g>
	<g>
		<path fill="#1C1E1C" d="M43,43.7h0.6c2.3,0,5.1,0.4,5.1,3.3c0,3-2.6,3.4-5,3.4H43V43.7z M43,52.6h1.3c3.6,0,6.6-1.5,6.6-5.5
			c0-3.4-1.8-5.4-7.6-5.4h-2.7v18.8H43L43,52.6L43,52.6z"/>
	</g>
	<g>
		<polygon fill="#1C1E1C" points="98.2,41.6 101.3,41.6 92.9,50.1 101.4,60.4 98.3,60.4 91.2,51.7 90.2,52.6 90.2,60.4 87.9,60.4 
			87.9,41.6 90.2,41.6 90.2,49.8 		"/>
	</g>
	<g>
		<path fill="#1C1E1C" d="M58.6,43.7h0.6c2.3,0,5.1,0.4,5.1,3.3c0,3-2.6,3.4-5,3.4h-0.8C58.6,50.5,58.6,43.7,58.6,43.7z M62,52.2
			c2.7-0.3,4.5-2.6,4.5-5.3c0-1.8-0.9-3.6-2.4-4.5c-1.5-0.9-3.3-0.9-4.9-0.9h-2.8v18.8h2.3v-8h1l5.5,8H68L62,52.2z"/>
	</g>
	<g>
		<path fill="#1C3F94" d="M17,34.8c9,0,16.3,7.3,16.3,16.3S26,67.3,17,67.3S0.7,60,0.7,51L17,34.8z"/>
	</g>
</g>
</svg>
